digraph "board.h"
{
  bgcolor="transparent";
  edge [fontname="Helvetica",fontsize="10",labelfontname="Helvetica",labelfontsize="10"];
  node [fontname="Helvetica",fontsize="10",shape=record];
  Node1 [label="board.h",height=0.2,width=0.4,color="black", fillcolor="grey75", style="filled", fontcolor="black"];
  Node1 -> Node2 [color="midnightblue",fontsize="10",style="solid",fontname="Helvetica"];
  Node2 [label="bitarithm.h",height=0.2,width=0.4,color="black",URL="$bitarithm_8h.html",tooltip="Helper functions for bit arithmetic. "];
  Node2 -> Node3 [color="midnightblue",fontsize="10",style="solid",fontname="Helvetica"];
  Node3 [label="stdint.h",height=0.2,width=0.4,color="grey75"];
  Node2 -> Node4 [color="midnightblue",fontsize="10",style="solid",fontname="Helvetica"];
  Node4 [label="cpu_conf.h",height=0.2,width=0.4,color="grey75"];
  Node1 -> Node5 [color="midnightblue",fontsize="10",style="solid",fontname="Helvetica"];
  Node5 [label="msba2_common.h",height=0.2,width=0.4,color="black",URL="$msba2__common_8h.html",tooltip="MSB-A2 Common Board Definitions. "];
  Node5 -> Node3 [color="midnightblue",fontsize="10",style="solid",fontname="Helvetica"];
  Node5 -> Node6 [color="midnightblue",fontsize="10",style="solid",fontname="Helvetica"];
  Node6 [label="lpc2387.h",height=0.2,width=0.4,color="black",URL="$lpc2387_8h_source.html"];
  Node6 -> Node7 [color="midnightblue",fontsize="10",style="solid",fontname="Helvetica"];
  Node7 [label="vendor/lpc23xx.h",height=0.2,width=0.4,color="grey75"];
  Node6 -> Node8 [color="midnightblue",fontsize="10",style="solid",fontname="Helvetica"];
  Node8 [label="arm7_common.h",height=0.2,width=0.4,color="black",URL="$arm7__common_8h.html",tooltip="ARM7 CPU common declarations. "];
  Node8 -> Node2 [color="midnightblue",fontsize="10",style="solid",fontname="Helvetica"];
  Node6 -> Node2 [color="midnightblue",fontsize="10",style="solid",fontname="Helvetica"];
}
