digraph "board.h"
{
  bgcolor="transparent";
  edge [fontname="Helvetica",fontsize="10",labelfontname="Helvetica",labelfontsize="10"];
  node [fontname="Helvetica",fontsize="10",shape=record];
  Node1 [label="board.h",height=0.2,width=0.4,color="black", fillcolor="grey75", style="filled", fontcolor="black"];
  Node1 -> Node2 [color="midnightblue",fontsize="10",style="solid",fontname="Helvetica"];
  Node2 [label="cpu.h",height=0.2,width=0.4,color="grey75"];
  Node1 -> Node3 [color="midnightblue",fontsize="10",style="solid",fontname="Helvetica"];
  Node3 [label="periph_conf.h",height=0.2,width=0.4,color="black",URL="$boards_2mulle_2include_2periph__conf_8h.html"];
  Node3 -> Node4 [color="midnightblue",fontsize="10",style="solid",fontname="Helvetica"];
  Node4 [label="periph_cpu.h",height=0.2,width=0.4,color="grey75"];
  Node1 -> Node5 [color="midnightblue",fontsize="10",style="solid",fontname="Helvetica"];
  Node5 [label="mulle-nvram.h",height=0.2,width=0.4,color="black",URL="$mulle-nvram_8h.html",tooltip="NVRAM offsets for the Eistec Mulle IoT board. "];
  Node5 -> Node6 [color="midnightblue",fontsize="10",style="solid",fontname="Helvetica"];
  Node6 [label="nvram.h",height=0.2,width=0.4,color="black",URL="$nvram_8h.html",tooltip="Generic non-volatile RAM driver interface. "];
  Node6 -> Node7 [color="midnightblue",fontsize="10",style="solid",fontname="Helvetica"];
  Node7 [label="stdint.h",height=0.2,width=0.4,color="grey75"];
  Node6 -> Node8 [color="midnightblue",fontsize="10",style="solid",fontname="Helvetica"];
  Node8 [label="stddef.h",height=0.2,width=0.4,color="grey75"];
  Node1 -> Node9 [color="midnightblue",fontsize="10",style="solid",fontname="Helvetica"];
  Node9 [label="mtd.h",height=0.2,width=0.4,color="black",URL="$mtd_8h.html"];
  Node9 -> Node7 [color="midnightblue",fontsize="10",style="solid",fontname="Helvetica"];
}
