digraph "timer.h"
{
  bgcolor="transparent";
  edge [fontname="Helvetica",fontsize="10",labelfontname="Helvetica",labelfontsize="10"];
  node [fontname="Helvetica",fontsize="10",shape=record];
  Node1 [label="timer.h",height=0.2,width=0.4,color="black", fillcolor="grey75", style="filled", fontcolor="black"];
  Node1 -> Node2 [dir="back",color="midnightblue",fontsize="10",style="solid",fontname="Helvetica"];
  Node2 [label="board.h",height=0.2,width=0.4,color="black",URL="$pkg_2semtech-loramac_2include_2semtech-loramac_2board_8h.html",tooltip="Internal required Semtech LoRaMAC definitions for radio. "];
  Node2 -> Node3 [dir="back",color="midnightblue",fontsize="10",style="solid",fontname="Helvetica"];
  Node3 [label="cpu.h",height=0.2,width=0.4,color="black",URL="$msp430__common_2include_2cpu_8h.html",tooltip="Texas Instruments MSP430 specific code. "];
  Node2 -> Node4 [dir="back",color="midnightblue",fontsize="10",style="solid",fontname="Helvetica"];
  Node4 [label="periph_conf_common.h",height=0.2,width=0.4,color="black",URL="$esp8266_2include_2periph__conf__common_8h.html",tooltip="Configurations of the MCU periphery that are common for all ESP8266 boards. "];
  Node4 -> Node5 [dir="back",color="midnightblue",fontsize="10",style="solid",fontname="Helvetica"];
  Node5 [label="board_common.h",height=0.2,width=0.4,color="black",URL="$esp8266_2include_2board__common_8h.html",tooltip="Board definitions that are common for all ESP8266 boards. "];
  Node4 -> Node6 [dir="back",color="midnightblue",fontsize="10",style="solid",fontname="Helvetica"];
  Node6 [label="board_modules.h",height=0.2,width=0.4,color="black",URL="$board__modules_8h.html",tooltip="Definitions for optional off-board hardware modules that can be used with all ESP8266 boards..."];
  Node6 -> Node5 [dir="back",color="midnightblue",fontsize="10",style="solid",fontname="Helvetica"];
  Node2 -> Node7 [dir="back",color="midnightblue",fontsize="10",style="solid",fontname="Helvetica"];
  Node7 [label="aem.h",height=0.2,width=0.4,color="black",URL="$aem_8h.html",tooltip="Implementations of the advanced energy monitor driver. "];
  Node2 -> Node8 [dir="back",color="midnightblue",fontsize="10",style="solid",fontname="Helvetica"];
  Node8 [label="bc.h",height=0.2,width=0.4,color="black",URL="$bc_8h.html",tooltip="Implementations of the board controller driver. "];
  Node2 -> Node9 [dir="back",color="midnightblue",fontsize="10",style="solid",fontname="Helvetica"];
  Node9 [label="pic.h",height=0.2,width=0.4,color="black",URL="$pic_8h.html",tooltip="Implementations of the power-and-interrupt controller. "];
  Node2 -> Node10 [dir="back",color="midnightblue",fontsize="10",style="solid",fontname="Helvetica"];
  Node10 [label="board_common.h",height=0.2,width=0.4,color="black",URL="$silabs_2include_2board__common_8h.html",tooltip="Common board definitions for the Silicon Labs developtment boards. "];
  Node2 -> Node11 [dir="back",color="midnightblue",fontsize="10",style="solid",fontname="Helvetica"];
  Node11 [label="cc110x-defaultsettings.h",height=0.2,width=0.4,color="black",URL="$cc110x-defaultsettings_8h.html",tooltip="cc110x default settings override "];
  Node2 -> Node12 [dir="back",color="midnightblue",fontsize="10",style="solid",fontname="Helvetica"];
  Node12 [label="hts221_regs.h",height=0.2,width=0.4,color="black",URL="$hts221__regs_8h.html",tooltip="Register definitions for ST HTS221 devices. "];
  Node12 -> Node13 [dir="back",color="midnightblue",fontsize="10",style="solid",fontname="Helvetica"];
  Node13 [label="hts221.h",height=0.2,width=0.4,color="black",URL="$hts221_8h.html",tooltip="Interface definition for the ST HTS221 driver. "];
  Node13 -> Node12 [dir="back",color="midnightblue",fontsize="10",style="solid",fontname="Helvetica"];
  Node2 -> Node14 [dir="back",color="midnightblue",fontsize="10",style="solid",fontname="Helvetica"];
  Node14 [label="at86rf2xx.h",height=0.2,width=0.4,color="black",URL="$at86rf2xx_8h.html",tooltip="Interface definition for AT86RF2xx based drivers. "];
  Node14 -> Node15 [dir="back",color="midnightblue",fontsize="10",style="solid",fontname="Helvetica"];
  Node15 [label="at86rf2xx_internal.h",height=0.2,width=0.4,color="black",URL="$at86rf2xx__internal_8h.html",tooltip="Internal interfaces for AT86RF2xx drivers. "];
  Node14 -> Node16 [dir="back",color="midnightblue",fontsize="10",style="solid",fontname="Helvetica"];
  Node16 [label="at86rf2xx_registers.h",height=0.2,width=0.4,color="black",URL="$at86rf2xx__registers_8h.html",tooltip="Register and command definitions for AT86RF2xx devices. "];
  Node2 -> Node17 [dir="back",color="midnightblue",fontsize="10",style="solid",fontname="Helvetica"];
  Node17 [label="kw2xrf.h",height=0.2,width=0.4,color="black",URL="$kw2xrf_8h.html",tooltip="Interface definition for the kw2xrf driver. "];
  Node17 -> Node18 [dir="back",color="midnightblue",fontsize="10",style="solid",fontname="Helvetica"];
  Node18 [label="kw2xrf_getset.h",height=0.2,width=0.4,color="black",URL="$kw2xrf__getset_8h.html",tooltip="get/set interfaces for kw2xrf driver "];
  Node17 -> Node19 [dir="back",color="midnightblue",fontsize="10",style="solid",fontname="Helvetica"];
  Node19 [label="kw2xrf_intern.h",height=0.2,width=0.4,color="black",URL="$kw2xrf__intern_8h.html",tooltip="Internal function interfaces for kw2xrf driver. "];
  Node2 -> Node20 [dir="back",color="midnightblue",fontsize="10",style="solid",fontname="Helvetica"];
  Node20 [label="led.h",height=0.2,width=0.4,color="black",URL="$led_8h.html",tooltip="Macros for controlling the on-board LEDs. "];
  Node2 -> Node21 [dir="back",color="midnightblue",fontsize="10",style="solid",fontname="Helvetica"];
  Node21 [label="mrf24j40.h",height=0.2,width=0.4,color="black",URL="$mrf24j40_8h.html",tooltip="Interface definition for MRF24J40 based drivers. "];
  Node21 -> Node22 [dir="back",color="midnightblue",fontsize="10",style="solid",fontname="Helvetica"];
  Node22 [label="mrf24j40_internal.h",height=0.2,width=0.4,color="black",URL="$mrf24j40__internal_8h.html",tooltip="Internal interfaces for MRF24J40 drivers. "];
  Node2 -> Node23 [dir="back",color="midnightblue",fontsize="10",style="solid",fontname="Helvetica"];
  Node23 [label="kw2xrf_spi.h",height=0.2,width=0.4,color="black",URL="$kw2xrf__spi_8h.html",tooltip="Definition of KW2XRF SPI functions. "];
  Node2 -> Node24 [dir="back",color="midnightblue",fontsize="10",style="solid",fontname="Helvetica"];
  Node24 [label="tmp006_regs.h",height=0.2,width=0.4,color="black",URL="$tmp006__regs_8h.html",tooltip="Register definitions for TMP006 devices. "];
  Node2 -> Node25 [dir="back",color="midnightblue",fontsize="10",style="solid",fontname="Helvetica"];
  Node25 [label="spiffs_config.h",height=0.2,width=0.4,color="black",URL="$spiffs__config_8h_source.html"];
  Node25 -> Node26 [dir="back",color="midnightblue",fontsize="10",style="solid",fontname="Helvetica"];
  Node26 [label="spiffs_fs.h",height=0.2,width=0.4,color="black",URL="$spiffs__fs_8h.html",tooltip="SPIFFS integration with vfs. "];
  Node2 -> Node27 [dir="back",color="midnightblue",fontsize="10",style="solid",fontname="Helvetica"];
  Node27 [label="xtimer.h",height=0.2,width=0.4,color="black",URL="$xtimer_8h.html",tooltip="xtimer interface definitions "];
  Node27 -> Node28 [dir="back",color="midnightblue",fontsize="10",style="solid",fontname="Helvetica"];
  Node28 [label="ata8520e.h",height=0.2,width=0.4,color="black",URL="$ata8520e_8h.html",tooltip="Device driver for Microchip ATA8520E transceiver (Sigfox) "];
  Node27 -> Node29 [dir="back",color="midnightblue",fontsize="10",style="solid",fontname="Helvetica"];
  Node29 [label="rn2xx3.h",height=0.2,width=0.4,color="black",URL="$rn2xx3_8h.html",tooltip="High-level driver for the RN2483/RN2903 LoRa modules. "];
  Node29 -> Node30 [dir="back",color="midnightblue",fontsize="10",style="solid",fontname="Helvetica"];
  Node30 [label="rn2xx3_internal.h",height=0.2,width=0.4,color="black",URL="$rn2xx3__internal_8h.html",tooltip="Internal driver definitions for the RN2483/RN2903 LoRa modules. "];
  Node27 -> Node31 [dir="back",color="midnightblue",fontsize="10",style="solid",fontname="Helvetica"];
  Node31 [label="srf04.h",height=0.2,width=0.4,color="black",URL="$srf04_8h.html",tooltip="Device driver for the srf04 ultra sonic range finder. "];
  Node27 -> Node32 [dir="back",color="midnightblue",fontsize="10",style="solid",fontname="Helvetica"];
  Node32 [label="sx127x.h",height=0.2,width=0.4,color="black",URL="$sx127x_8h.html",tooltip="Public interface for SX127X driver. "];
  Node32 -> Node33 [dir="back",color="midnightblue",fontsize="10",style="solid",fontname="Helvetica"];
  Node33 [label="sx127x_internal.h",height=0.2,width=0.4,color="black",URL="$sx127x__internal_8h.html",tooltip="Semtech SX127X internal functions. "];
  Node32 -> Node34 [dir="back",color="midnightblue",fontsize="10",style="solid",fontname="Helvetica"];
  Node34 [label="semtech_loramac.h",height=0.2,width=0.4,color="black",URL="$semtech__loramac_8h.html",tooltip="Public API and definitions of the Semtech LoRaMAC. "];
  Node34 -> Node1 [dir="back",color="midnightblue",fontsize="10",style="solid",fontname="Helvetica"];
  Node27 -> Node35 [dir="back",color="midnightblue",fontsize="10",style="solid",fontname="Helvetica"];
  Node35 [label="xbee.h",height=0.2,width=0.4,color="black",URL="$xbee_8h.html",tooltip="High-level driver for the XBee S1 802.15.4 modem. "];
  Node27 -> Node36 [dir="back",color="midnightblue",fontsize="10",style="solid",fontname="Helvetica"];
  Node36 [label="lsm6dsl_internal.h",height=0.2,width=0.4,color="black",URL="$lsm6dsl__internal_8h.html",tooltip="Internal configuration for LSM6DSL devices. "];
  Node27 -> Node37 [dir="back",color="midnightblue",fontsize="10",style="solid",fontname="Helvetica"];
  Node37 [label="my9221_internal.h",height=0.2,width=0.4,color="black",URL="$my9221__internal_8h.html",tooltip="Internal config and parameters for the MY9221 LED controller. "];
  Node27 -> Node1 [dir="back",color="midnightblue",fontsize="10",style="solid",fontname="Helvetica"];
  Node27 -> Node38 [dir="back",color="midnightblue",fontsize="10",style="solid",fontname="Helvetica"];
  Node38 [label="chrono.hpp",height=0.2,width=0.4,color="black",URL="$chrono_8hpp.html",tooltip="C++11 chrono drop in replacement that adds the function now based on xtimer/timex. "];
  Node38 -> Node39 [dir="back",color="midnightblue",fontsize="10",style="solid",fontname="Helvetica"];
  Node39 [label="condition_variable.hpp",height=0.2,width=0.4,color="black",URL="$condition__variable_8hpp.html",tooltip="C++11 condition variable drop in replacement. "];
  Node39 -> Node40 [dir="back",color="midnightblue",fontsize="10",style="solid",fontname="Helvetica"];
  Node40 [label="thread.hpp",height=0.2,width=0.4,color="black",URL="$thread_8hpp.html",tooltip="C++11 thread drop in replacement. "];
  Node38 -> Node40 [dir="back",color="midnightblue",fontsize="10",style="solid",fontname="Helvetica"];
  Node27 -> Node39 [dir="back",color="midnightblue",fontsize="10",style="solid",fontname="Helvetica"];
  Node27 -> Node41 [dir="back",color="midnightblue",fontsize="10",style="solid",fontname="Helvetica"];
  Node41 [label="benchmark.h",height=0.2,width=0.4,color="black",URL="$benchmark_8h.html",tooltip="Interface for running simple benchmarks. "];
  Node27 -> Node42 [dir="back",color="midnightblue",fontsize="10",style="solid",fontname="Helvetica"];
  Node42 [label="isotp.h",height=0.2,width=0.4,color="black",URL="$isotp_8h.html",tooltip="ISO TP high level interface. "];
  Node42 -> Node43 [dir="back",color="midnightblue",fontsize="10",style="solid",fontname="Helvetica"];
  Node43 [label="isotp.h",height=0.2,width=0.4,color="black",URL="$conn_2isotp_8h.html",tooltip="Definitions of generic CAN interface. "];
  Node27 -> Node44 [dir="back",color="midnightblue",fontsize="10",style="solid",fontname="Helvetica"];
  Node44 [label="timeout.h",height=0.2,width=0.4,color="black",URL="$event_2timeout_8h.html",tooltip="Provides functionality to trigger events after timeout. "];
  Node44 -> Node45 [dir="back",color="midnightblue",fontsize="10",style="solid",fontname="Helvetica"];
  Node45 [label="asymcute.h",height=0.2,width=0.4,color="black",URL="$asymcute_8h.html",tooltip="Asymcute MQTT-SN interface definition. "];
  Node27 -> Node46 [dir="back",color="midnightblue",fontsize="10",style="solid",fontname="Helvetica"];
  Node46 [label="evtimer.h",height=0.2,width=0.4,color="black",URL="$evtimer_8h.html",tooltip="evtimer API definitions "];
  Node46 -> Node47 [dir="back",color="midnightblue",fontsize="10",style="solid",fontname="Helvetica"];
  Node47 [label="evtimer_msg.h",height=0.2,width=0.4,color="black",URL="$evtimer__msg_8h.html",tooltip="IPC-based evtimer definitions. "];
  Node47 -> Node48 [dir="back",color="midnightblue",fontsize="10",style="solid",fontname="Helvetica"];
  Node48 [label="ipv6.h",height=0.2,width=0.4,color="black",URL="$gnrc_2netif_2ipv6_8h.html",tooltip="IPv6 defintions for Network interface API. "];
  Node48 -> Node49 [dir="back",color="midnightblue",fontsize="10",style="solid",fontname="Helvetica"];
  Node49 [label="netif.h",height=0.2,width=0.4,color="black",URL="$gnrc_2netif_8h.html",tooltip="Definition for GNRC&#39;s network interfaces. "];
  Node49 -> Node50 [dir="back",color="midnightblue",fontsize="10",style="solid",fontname="Helvetica"];
  Node50 [label="gnrc_netif_cc110x.h",height=0.2,width=0.4,color="black",URL="$gnrc__netif__cc110x_8h.html",tooltip="CC110x adaption for Network interface API. "];
  Node49 -> Node51 [dir="back",color="midnightblue",fontsize="10",style="solid",fontname="Helvetica"];
  Node51 [label="gnrc_netif_xbee.h",height=0.2,width=0.4,color="black",URL="$gnrc__netif__xbee_8h.html",tooltip="XBee adaption for Network interface API. "];
  Node49 -> Node52 [dir="back",color="midnightblue",fontsize="10",style="solid",fontname="Helvetica"];
  Node52 [label="gomach.h",height=0.2,width=0.4,color="black",URL="$gomach_8h.html",tooltip="Implementation of GoMacH protocol. "];
  Node49 -> Node53 [dir="back",color="midnightblue",fontsize="10",style="solid",fontname="Helvetica"];
  Node53 [label="timeout.h",height=0.2,width=0.4,color="black",URL="$net_2gnrc_2gomach_2timeout_8h.html",tooltip="Timeout handling of GoMacH. "];
  Node49 -> Node54 [dir="back",color="midnightblue",fontsize="10",style="solid",fontname="Helvetica"];
  Node54 [label="echo.h",height=0.2,width=0.4,color="black",URL="$echo_8h.html",tooltip="ICMPv6 echo message definitions. "];
  Node54 -> Node55 [dir="back",color="midnightblue",fontsize="10",style="solid",fontname="Helvetica"];
  Node55 [label="icmpv6.h",height=0.2,width=0.4,color="black",URL="$gnrc_2icmpv6_8h.html",tooltip="Definitions for GNRC&#39;s ICMPv6 implementation. "];
  Node55 -> Node56 [dir="back",color="midnightblue",fontsize="10",style="solid",fontname="Helvetica"];
  Node56 [label="validation.h",height=0.2,width=0.4,color="black",URL="$validation_8h.html",tooltip="RPL control message validation functions. "];
  Node49 -> Node55 [dir="back",color="midnightblue",fontsize="10",style="solid",fontname="Helvetica"];
  Node49 -> Node57 [dir="back",color="midnightblue",fontsize="10",style="solid",fontname="Helvetica"];
  Node57 [label="ext.h",height=0.2,width=0.4,color="black",URL="$gnrc_2ipv6_2ext_8h.html",tooltip="Definititions for IPv6 extension headers. "];
  Node57 -> Node58 [dir="back",color="midnightblue",fontsize="10",style="solid",fontname="Helvetica"];
  Node58 [label="ipv6.h",height=0.2,width=0.4,color="black",URL="$gnrc_2ipv6_8h.html",tooltip="Definitions for GNRC&#39;s IPv6 implementation. "];
  Node58 -> Node59 [dir="back",color="midnightblue",fontsize="10",style="solid",fontname="Helvetica"];
  Node59 [label="error.h",height=0.2,width=0.4,color="black",URL="$error_8h.html",tooltip="ICMPv6 error message definitions. "];
  Node59 -> Node55 [dir="back",color="midnightblue",fontsize="10",style="solid",fontname="Helvetica"];
  Node58 -> Node60 [dir="back",color="midnightblue",fontsize="10",style="solid",fontname="Helvetica"];
  Node60 [label="rpl.h",height=0.2,width=0.4,color="black",URL="$rpl_8h.html",tooltip="RPL header. "];
  Node60 -> Node61 [dir="back",color="midnightblue",fontsize="10",style="solid",fontname="Helvetica"];
  Node61 [label="dodag.h",height=0.2,width=0.4,color="black",URL="$dodag_8h.html",tooltip="DODAG-related functions for RPL. "];
  Node61 -> Node60 [dir="back",color="midnightblue",fontsize="10",style="solid",fontname="Helvetica"];
  Node58 -> Node62 [dir="back",color="midnightblue",fontsize="10",style="solid",fontname="Helvetica"];
  Node62 [label="tcb.h",height=0.2,width=0.4,color="black",URL="$tcb_8h.html",tooltip="GNRC TCP transmission control block (TCB) "];
  Node62 -> Node63 [dir="back",color="midnightblue",fontsize="10",style="solid",fontname="Helvetica"];
  Node63 [label="tcp.h",height=0.2,width=0.4,color="black",URL="$gnrc_2tcp_8h.html",tooltip="GNRC TCP API. "];
  Node62 -> Node64 [dir="back",color="midnightblue",fontsize="10",style="solid",fontname="Helvetica"];
  Node64 [label="common.h",height=0.2,width=0.4,color="black",URL="$sys_2net_2gnrc_2transport__layer_2tcp_2internal_2common_8h.html",tooltip="Internally used defines, macros and variable declarations. "];
  Node62 -> Node65 [dir="back",color="midnightblue",fontsize="10",style="solid",fontname="Helvetica"];
  Node65 [label="fsm.h",height=0.2,width=0.4,color="black",URL="$fsm_8h.html",tooltip="TCP finite state maschine declarations. "];
  Node62 -> Node66 [dir="back",color="midnightblue",fontsize="10",style="solid",fontname="Helvetica"];
  Node66 [label="option.h",height=0.2,width=0.4,color="black",URL="$option_8h.html",tooltip="TCP option handling declarations. "];
  Node62 -> Node67 [dir="back",color="midnightblue",fontsize="10",style="solid",fontname="Helvetica"];
  Node67 [label="pkt.h",height=0.2,width=0.4,color="black",URL="$net_2gnrc_2transport__layer_2tcp_2internal_2pkt_8h.html",tooltip="TCP paket handling declarations. "];
  Node62 -> Node68 [dir="back",color="midnightblue",fontsize="10",style="solid",fontname="Helvetica"];
  Node68 [label="rcvbuf.h",height=0.2,width=0.4,color="black",URL="$rcvbuf_8h.html",tooltip="Functions for allocating and freeing the receive buffer. "];
  Node58 -> Node63 [dir="back",color="midnightblue",fontsize="10",style="solid",fontname="Helvetica"];
  Node58 -> Node69 [dir="back",color="midnightblue",fontsize="10",style="solid",fontname="Helvetica"];
  Node69 [label="_nib-internal.h",height=0.2,width=0.4,color="black",URL="$__nib-internal_8h_source.html"];
  Node69 -> Node70 [dir="back",color="midnightblue",fontsize="10",style="solid",fontname="Helvetica"];
  Node70 [label="_nib-arsm.h",height=0.2,width=0.4,color="black",URL="$__nib-arsm_8h_source.html"];
  Node70 -> Node71 [dir="back",color="midnightblue",fontsize="10",style="solid",fontname="Helvetica"];
  Node71 [label="_nib-6ln.h",height=0.2,width=0.4,color="black",URL="$__nib-6ln_8h.html",tooltip="Definitions related to 6Lo node (6LN) functionality of the NIB. "];
  Node71 -> Node72 [dir="back",color="midnightblue",fontsize="10",style="solid",fontname="Helvetica"];
  Node72 [label="_nib-6lr.h",height=0.2,width=0.4,color="black",URL="$__nib-6lr_8h.html",tooltip="Definitions related to 6Lo router (6LR) functionality of the NIB. "];
  Node70 -> Node72 [dir="back",color="midnightblue",fontsize="10",style="solid",fontname="Helvetica"];
  Node69 -> Node71 [dir="back",color="midnightblue",fontsize="10",style="solid",fontname="Helvetica"];
  Node69 -> Node72 [dir="back",color="midnightblue",fontsize="10",style="solid",fontname="Helvetica"];
  Node69 -> Node73 [dir="back",color="midnightblue",fontsize="10",style="solid",fontname="Helvetica"];
  Node73 [label="_nib-router.h",height=0.2,width=0.4,color="black",URL="$__nib-router_8h_source.html"];
  Node49 -> Node74 [dir="back",color="midnightblue",fontsize="10",style="solid",fontname="Helvetica"];
  Node74 [label="nib.h",height=0.2,width=0.4,color="black",URL="$nib_8h.html",tooltip="NIB definitions. "];
  Node74 -> Node58 [dir="back",color="midnightblue",fontsize="10",style="solid",fontname="Helvetica"];
  Node49 -> Node75 [dir="back",color="midnightblue",fontsize="10",style="solid",fontname="Helvetica"];
  Node75 [label="lwmac.h",height=0.2,width=0.4,color="black",URL="$lwmac_8h.html",tooltip="Interface definition for the LWMAC protocol. "];
  Node49 -> Node76 [dir="back",color="midnightblue",fontsize="10",style="solid",fontname="Helvetica"];
  Node76 [label="timeout.h",height=0.2,width=0.4,color="black",URL="$net_2gnrc_2lwmac_2timeout_8h.html",tooltip="Timeout handling of LWMAC. "];
  Node49 -> Node77 [dir="back",color="midnightblue",fontsize="10",style="solid",fontname="Helvetica"];
  Node77 [label="internal.h",height=0.2,width=0.4,color="black",URL="$mac_2internal_8h.html",tooltip="Definitions of internal functions of GNRC_MAC module. "];
  Node49 -> Node78 [dir="back",color="midnightblue",fontsize="10",style="solid",fontname="Helvetica"];
  Node78 [label="ndp.h",height=0.2,width=0.4,color="black",URL="$gnrc_2ndp_8h.html",tooltip="GNRC-specific neighbor discovery definitions. "];
  Node49 -> Node79 [dir="back",color="midnightblue",fontsize="10",style="solid",fontname="Helvetica"];
  Node79 [label="ethernet.h",height=0.2,width=0.4,color="black",URL="$gnrc_2netif_2ethernet_8h.html",tooltip="Ethernet adaption for Network interface API. "];
  Node49 -> Node80 [dir="back",color="midnightblue",fontsize="10",style="solid",fontname="Helvetica"];
  Node80 [label="ieee802154.h",height=0.2,width=0.4,color="black",URL="$sys_2include_2net_2gnrc_2netif_2ieee802154_8h.html",tooltip="IEEE 802.15.4 adaption for Network interface API. "];
  Node49 -> Node81 [dir="back",color="midnightblue",fontsize="10",style="solid",fontname="Helvetica"];
  Node81 [label="internal.h",height=0.2,width=0.4,color="black",URL="$netif_2internal_8h_source.html"];
  Node81 -> Node73 [dir="back",color="midnightblue",fontsize="10",style="solid",fontname="Helvetica"];
  Node49 -> Node82 [dir="back",color="midnightblue",fontsize="10",style="solid",fontname="Helvetica"];
  Node82 [label="raw.h",height=0.2,width=0.4,color="black",URL="$net_2gnrc_2netif_2raw_8h.html",tooltip="Raw (i.e. "];
  Node49 -> Node83 [dir="back",color="midnightblue",fontsize="10",style="solid",fontname="Helvetica"];
  Node83 [label="internal.h",height=0.2,width=0.4,color="black",URL="$sixlowpan_2internal_8h.html",tooltip="6LoWPAN internal functions "];
  Node83 -> Node84 [dir="back",color="midnightblue",fontsize="10",style="solid",fontname="Helvetica"];
  Node84 [label="sixlowpan.h",height=0.2,width=0.4,color="black",URL="$gnrc_2sixlowpan_8h.html",tooltip="Definitions for 6LoWPAN. "];
  Node49 -> Node85 [dir="back",color="midnightblue",fontsize="10",style="solid",fontname="Helvetica"];
  Node85 [label="gnrc.h",height=0.2,width=0.4,color="black",URL="$gnrc_8h.html",tooltip="Includes all essential GNRC network stack base modules. "];
  Node85 -> Node86 [dir="back",color="midnightblue",fontsize="10",style="solid",fontname="Helvetica"];
  Node86 [label="types.h",height=0.2,width=0.4,color="black",URL="$gomach_2types_8h.html",tooltip="Internal used types of GoMacH. "];
  Node86 -> Node53 [dir="back",color="midnightblue",fontsize="10",style="solid",fontname="Helvetica"];
  Node85 -> Node58 [dir="back",color="midnightblue",fontsize="10",style="solid",fontname="Helvetica"];
  Node85 -> Node87 [dir="back",color="midnightblue",fontsize="10",style="solid",fontname="Helvetica"];
  Node87 [label="types.h",height=0.2,width=0.4,color="black",URL="$mac_2types_8h.html",tooltip="Internal data types used by GNRC_MAC. "];
  Node87 -> Node88 [dir="back",color="midnightblue",fontsize="10",style="solid",fontname="Helvetica"];
  Node88 [label="mac.h",height=0.2,width=0.4,color="black",URL="$netif_2mac_8h.html",tooltip="Common MAC module definitions for Network interface API "];
  Node87 -> Node89 [dir="back",color="midnightblue",fontsize="10",style="solid",fontname="Helvetica"];
  Node89 [label="lwmac_internal.h",height=0.2,width=0.4,color="black",URL="$lwmac__internal_8h.html",tooltip="Interface definition for internal functions of LWMAC protocol. "];
  Node87 -> Node90 [dir="back",color="midnightblue",fontsize="10",style="solid",fontname="Helvetica"];
  Node90 [label="tx_state_machine.h",height=0.2,width=0.4,color="black",URL="$tx__state__machine_8h.html",tooltip="Implementation of TX state machine. "];
  Node85 -> Node91 [dir="back",color="midnightblue",fontsize="10",style="solid",fontname="Helvetica"];
  Node91 [label="p2p.h",height=0.2,width=0.4,color="black",URL="$p2p_8h.html",tooltip="Definititions for P2P-RPL. "];
  Node85 -> Node60 [dir="back",color="midnightblue",fontsize="10",style="solid",fontname="Helvetica"];
  Node85 -> Node92 [dir="back",color="midnightblue",fontsize="10",style="solid",fontname="Helvetica"];
  Node92 [label="udp.h",height=0.2,width=0.4,color="black",URL="$gnrc_2udp_8h.html",tooltip="UDP GNRC definition. "];
  Node85 -> Node93 [dir="back",color="midnightblue",fontsize="10",style="solid",fontname="Helvetica"];
  Node93 [label="gnrc_sock_internal.h",height=0.2,width=0.4,color="black",URL="$gnrc__sock__internal_8h.html",tooltip="GNRC-specific types and function definitions. "];
  Node85 -> Node94 [dir="back",color="midnightblue",fontsize="10",style="solid",fontname="Helvetica"];
  Node94 [label="sock_types.h",height=0.2,width=0.4,color="black",URL="$sock__types_8h.html",tooltip="GNRC-specific types and function definitions. "];
  Node94 -> Node95 [dir="back",color="midnightblue",fontsize="10",style="solid",fontname="Helvetica"];
  Node95 [label="ip.h",height=0.2,width=0.4,color="black",URL="$ip_8h.html",tooltip="Raw IPv4/IPv6 sock definitions. "];
  Node95 -> Node93 [dir="back",color="midnightblue",fontsize="10",style="solid",fontname="Helvetica"];
  Node95 -> Node94 [dir="back",color="midnightblue",fontsize="10",style="solid",fontname="Helvetica"];
  Node94 -> Node96 [dir="back",color="midnightblue",fontsize="10",style="solid",fontname="Helvetica"];
  Node96 [label="tcp.h",height=0.2,width=0.4,color="black",URL="$sock_2tcp_8h.html",tooltip="TCP sock definitions. "];
  Node94 -> Node97 [dir="back",color="midnightblue",fontsize="10",style="solid",fontname="Helvetica"];
  Node97 [label="udp.h",height=0.2,width=0.4,color="black",URL="$sock_2udp_8h.html",tooltip="UDP sock definitions. "];
  Node97 -> Node45 [dir="back",color="midnightblue",fontsize="10",style="solid",fontname="Helvetica"];
  Node97 -> Node98 [dir="back",color="midnightblue",fontsize="10",style="solid",fontname="Helvetica"];
  Node98 [label="emcute.h",height=0.2,width=0.4,color="black",URL="$emcute_8h.html",tooltip="emCute MQTT-SN interface definition "];
  Node97 -> Node99 [dir="back",color="midnightblue",fontsize="10",style="solid",fontname="Helvetica"];
  Node99 [label="gcoap.h",height=0.2,width=0.4,color="black",URL="$gcoap_8h.html",tooltip="gcoap definition "];
  Node97 -> Node100 [dir="back",color="midnightblue",fontsize="10",style="solid",fontname="Helvetica"];
  Node100 [label="nanocoap_sock.h",height=0.2,width=0.4,color="black",URL="$nanocoap__sock_8h.html",tooltip="nanocoap high-level API "];
  Node97 -> Node101 [dir="back",color="midnightblue",fontsize="10",style="solid",fontname="Helvetica"];
  Node101 [label="sntp.h",height=0.2,width=0.4,color="black",URL="$sntp_8h.html",tooltip="SNTP definitions. "];
  Node97 -> Node102 [dir="back",color="midnightblue",fontsize="10",style="solid",fontname="Helvetica"];
  Node102 [label="dns.h",height=0.2,width=0.4,color="black",URL="$dns_8h.html",tooltip="DNS sock definitions. "];
  Node97 -> Node103 [dir="back",color="midnightblue",fontsize="10",style="solid",fontname="Helvetica"];
  Node103 [label="util.h",height=0.2,width=0.4,color="black",URL="$util_8h.html",tooltip="sock utility function definitions "];
  Node103 -> Node45 [dir="back",color="midnightblue",fontsize="10",style="solid",fontname="Helvetica"];
  Node97 -> Node94 [dir="back",color="midnightblue",fontsize="10",style="solid",fontname="Helvetica"];
  Node94 -> Node93 [dir="back",color="midnightblue",fontsize="10",style="solid",fontname="Helvetica"];
  Node85 -> Node65 [dir="back",color="midnightblue",fontsize="10",style="solid",fontname="Helvetica"];
  Node85 -> Node67 [dir="back",color="midnightblue",fontsize="10",style="solid",fontname="Helvetica"];
  Node49 -> Node104 [dir="back",color="midnightblue",fontsize="10",style="solid",fontname="Helvetica"];
  Node104 [label="gomach_internal.h",height=0.2,width=0.4,color="black",URL="$gomach__internal_8h.html",tooltip="GoMacH&#39;s internal functions. "];
  Node49 -> Node89 [dir="back",color="midnightblue",fontsize="10",style="solid",fontname="Helvetica"];
  Node49 -> Node105 [dir="back",color="midnightblue",fontsize="10",style="solid",fontname="Helvetica"];
  Node105 [label="rx_state_machine.h",height=0.2,width=0.4,color="black",URL="$rx__state__machine_8h.html",tooltip="Implementation of RX state machine. "];
  Node49 -> Node90 [dir="back",color="midnightblue",fontsize="10",style="solid",fontname="Helvetica"];
  Node49 -> Node70 [dir="back",color="midnightblue",fontsize="10",style="solid",fontname="Helvetica"];
  Node49 -> Node106 [dir="back",color="midnightblue",fontsize="10",style="solid",fontname="Helvetica"];
  Node106 [label="_nib-slaac.h",height=0.2,width=0.4,color="black",URL="$__nib-slaac_8h.html",tooltip="Definions related to SLAAC functionality of the NIB. "];
  Node48 -> Node73 [dir="back",color="midnightblue",fontsize="10",style="solid",fontname="Helvetica"];
  Node47 -> Node107 [dir="back",color="midnightblue",fontsize="10",style="solid",fontname="Helvetica"];
  Node107 [label="structs.h",height=0.2,width=0.4,color="black",URL="$structs_8h.html",tooltip="RPL data structs. "];
  Node107 -> Node61 [dir="back",color="midnightblue",fontsize="10",style="solid",fontname="Helvetica"];
  Node107 -> Node108 [dir="back",color="midnightblue",fontsize="10",style="solid",fontname="Helvetica"];
  Node108 [label="of_manager.h",height=0.2,width=0.4,color="black",URL="$of__manager_8h.html",tooltip="RPL Objective functions manager header. "];
  Node108 -> Node60 [dir="back",color="midnightblue",fontsize="10",style="solid",fontname="Helvetica"];
  Node107 -> Node91 [dir="back",color="midnightblue",fontsize="10",style="solid",fontname="Helvetica"];
  Node107 -> Node109 [dir="back",color="midnightblue",fontsize="10",style="solid",fontname="Helvetica"];
  Node109 [label="p2p_structs.h",height=0.2,width=0.4,color="black",URL="$p2p__structs_8h.html",tooltip="P2P-RPL data structs. "];
  Node109 -> Node91 [dir="back",color="midnightblue",fontsize="10",style="solid",fontname="Helvetica"];
  Node109 -> Node110 [dir="back",color="midnightblue",fontsize="10",style="solid",fontname="Helvetica"];
  Node110 [label="p2p_dodag.h",height=0.2,width=0.4,color="black",URL="$p2p__dodag_8h.html",tooltip="DODAG-related functions for P2P-RPL. "];
  Node107 -> Node60 [dir="back",color="midnightblue",fontsize="10",style="solid",fontname="Helvetica"];
  Node107 -> Node56 [dir="back",color="midnightblue",fontsize="10",style="solid",fontname="Helvetica"];
  Node107 -> Node111 [dir="back",color="midnightblue",fontsize="10",style="solid",fontname="Helvetica"];
  Node111 [label="of0.h",height=0.2,width=0.4,color="black",URL="$of0_8h.html",tooltip="Objective Function Zero. "];
  Node47 -> Node69 [dir="back",color="midnightblue",fontsize="10",style="solid",fontname="Helvetica"];
  Node46 -> Node107 [dir="back",color="midnightblue",fontsize="10",style="solid",fontname="Helvetica"];
  Node46 -> Node112 [dir="back",color="midnightblue",fontsize="10",style="solid",fontname="Helvetica"];
  Node112 [label="globals.h",height=0.2,width=0.4,color="black",URL="$globals_8h.html",tooltip="Internal globals for RPL. "];
  Node27 -> Node99 [dir="back",color="midnightblue",fontsize="10",style="solid",fontname="Helvetica"];
  Node27 -> Node53 [dir="back",color="midnightblue",fontsize="10",style="solid",fontname="Helvetica"];
  Node27 -> Node86 [dir="back",color="midnightblue",fontsize="10",style="solid",fontname="Helvetica"];
  Node27 -> Node113 [dir="back",color="midnightblue",fontsize="10",style="solid",fontname="Helvetica"];
  Node113 [label="types.h",height=0.2,width=0.4,color="black",URL="$lwmac_2types_8h.html",tooltip="Definition of internal types used by LWMAC. "];
  Node113 -> Node76 [dir="back",color="midnightblue",fontsize="10",style="solid",fontname="Helvetica"];
  Node113 -> Node89 [dir="back",color="midnightblue",fontsize="10",style="solid",fontname="Helvetica"];
  Node27 -> Node60 [dir="back",color="midnightblue",fontsize="10",style="solid",fontname="Helvetica"];
  Node27 -> Node62 [dir="back",color="midnightblue",fontsize="10",style="solid",fontname="Helvetica"];
  Node27 -> Node114 [dir="back",color="midnightblue",fontsize="10",style="solid",fontname="Helvetica"];
  Node114 [label="skald.h",height=0.2,width=0.4,color="black",URL="$skald_8h.html",tooltip="Skald&#39;s basic interface. "];
  Node114 -> Node115 [dir="back",color="midnightblue",fontsize="10",style="solid",fontname="Helvetica"];
  Node115 [label="eddystone.h",height=0.2,width=0.4,color="black",URL="$skald_2eddystone_8h.html",tooltip="Skald&#39;s basic interface. "];
  Node114 -> Node116 [dir="back",color="midnightblue",fontsize="10",style="solid",fontname="Helvetica"];
  Node116 [label="ibeacon.h",height=0.2,width=0.4,color="black",URL="$ibeacon_8h.html",tooltip="Skald&#39;s basic interface. "];
  Node27 -> Node101 [dir="back",color="midnightblue",fontsize="10",style="solid",fontname="Helvetica"];
  Node27 -> Node117 [dir="back",color="midnightblue",fontsize="10",style="solid",fontname="Helvetica"];
  Node117 [label="trickle.h",height=0.2,width=0.4,color="black",URL="$trickle_8h.html",tooltip="Trickle timer interface definition. "];
  Node117 -> Node61 [dir="back",color="midnightblue",fontsize="10",style="solid",fontname="Helvetica"];
  Node117 -> Node107 [dir="back",color="midnightblue",fontsize="10",style="solid",fontname="Helvetica"];
  Node117 -> Node60 [dir="back",color="midnightblue",fontsize="10",style="solid",fontname="Helvetica"];
  Node27 -> Node71 [dir="back",color="midnightblue",fontsize="10",style="solid",fontname="Helvetica"];
  Node27 -> Node118 [dir="back",color="midnightblue",fontsize="10",style="solid",fontname="Helvetica"];
  Node118 [label="nhdp.h",height=0.2,width=0.4,color="black",URL="$nhdp_8h.html",tooltip="Interface for core functionality of NHDP. "];
  Node118 -> Node119 [dir="back",color="midnightblue",fontsize="10",style="solid",fontname="Helvetica"];
  Node119 [label="nhdp_writer.h",height=0.2,width=0.4,color="black",URL="$nhdp__writer_8h.html",tooltip="Writer interface for message generation in NHDP. "];
  Node2 -> Node120 [dir="back",color="midnightblue",fontsize="10",style="solid",fontname="Helvetica"];
  Node120 [label="stdio_uart.h",height=0.2,width=0.4,color="black",URL="$stdio__uart_8h.html"];
}
